{
  "name": "",
  "css_prefix_text": "icon-",
  "css_use_suffix": false,
  "hinting": true,
  "units_per_em": 1000,
  "ascent": 850,
  "glyphs": [
    {
      "uid": "a76545bb6ea4e684505da08d26e58467",
      "css": "left",
      "code": 59398,
      "src": "iconic"
    },
    {
      "uid": "7686897ce7ec808ff19aec948b5aaf43",
      "css": "right",
      "code": 59399,
      "src": "iconic"
    },
    {
      "uid": "667b873c8422e4cab006df8422cb51c5",
      "css": "pencil",
      "code": 59395,
      "src": "iconic"
    },
    {
      "uid": "630529f03c319c01101aa167181b650e",
      "css": "tag",
      "code": 59396,
      "src": "elusive"
    },
    {
      "uid": "bbd66ef66bb8fa9edde54d9a90b89150",
      "css": "user",
      "code": 59397,
      "src": "entypo"
    },
    {
      "uid": "884cfc3e6e2d456dd2a2ca0dbb9e6337",
      "css": "left-open-big",
      "code": 59401,
      "src": "entypo"
    },
    {
      "uid": "004882ab2d5c418c5b2060e80596279b",
      "css": "right-open-big",
      "code": 59402,
      "src": "entypo"
    },
    {
      "uid": "937a0ad3f6e25611bff801445d6a4885",
      "css": "tags",
      "code": 59392,
      "src": "elusive"
    },
    {
      "uid": "c95735c17a10af81448c7fed98a04546",
      "css": "folder-open",
      "code": 59393,
      "src": "fontawesome"
    },
    {
      "uid": "9x8p16w516pn1b19chr85japkedporm7",
      "css": "th-1",
      "code": 59403,
      "src": "typicons"
    },
    {
      "uid": "d10920db2e79c997c5e783279291970c",
      "css": "dot-3",
      "code": 59405,
      "src": "entypo"
    },
    {
      "uid": "c0a07aca383ff2a164a4d691fa46e35c",
      "css": "left-open",
      "code": 59404,
      "src": "elusive"
    },
    {
      "uid": "dc4a03854ef986d64565143bea4241aa",
      "css": "right-open",
      "code": 59406,
      "src": "elusive"
    },
    {
      "uid": "6533bdc16ab201eb3f3b27ce989cab33",
      "css": "folder-open-empty",
      "code": 61717,
      "src": "fontawesome"
    },
    {
      "uid": "7222571caa5c15f83dcfd447c58d68d9",
      "css": "search",
      "code": 59394,
      "src": "entypo"
    },
    {
      "uid": "5408be43f7c42bccee419c6be53fdef5",
      "css": "doc-text",
      "code": 61686,
      "src": "fontawesome"
    }
  ]
}