[
  {
    "name": "События"
  },
  {
    "name": "Мастерская"
  },
  {
    "name": "Фильмы"
  },
  {
    "name": "Игры"
  },
  {
    "name": "Личности"
  },
  {
    "name": "Книги"
  },
  {
    "name": "События"
  },
  {
    "name": "Мастерская"
  },
  {
    "name": "Фильмы"
  },
  {
    "name": "Игры"
  },
  {
    "name": "Личности"
  },
  {
    "name": "Книги"
  }
]
